{
  "data": {
    "collection": [
      {
        "id": "playr5d4mix",
        "title": "Play",
        "logo": "//d35ry4sf1xc0zi.cloudfront.net/images/logos/145_logo1442568228.png",
        "stream": "http://stream.playradio.rs:8001/play.mp3"
      },
      {
        "id": "classre5d12s4",
        "title": "Naxi Classic Radio",
        "logo": "//d35ry4sf1xc0zi.cloudfront.net/images/logos/1862_logo1421408548.png",
        "stream": "http://naxidigital-classic128.streaming.rs:8030/;*.mp3"
      }
    ]
  }
}